{
	"all": {
		"changeLogs": {
			"BDFDB": "3.5.9",
			"ImageUtilities": "5.4.0",
			"PluginRepo": "2.5.5",
			"ReadAllNotificationsButton": "1.7.5",
			"SplitLargeMessages": "1.8.1",
			"ThemeRepo": "2.5.5"
	
		"choices": {
			"toastPosition": "right"
	
		"general": {
			"shareData": true,
			"showToasts": true,
			"showSupportBadges": false,
			"useChromium": false
	
		"hashes": {
			"0BDFDB.data.json": "37e2001d7e6dc1d3d771e222cd9a1cf2bd43da63",
			"0BDFDB.raw.css": "8c083e2a87a82aded5f3b2e27fb8b2f816b5f74a"
		}
	}
}