{
	"all": {
		"cached": "2 7 8 9 11 14 15 17 28 29 30 59 60 61 62 63 64 65 66 67 70 71 73 74 75 76 77 80 81 82 83 85 86 87 88 89 91 92 93 94 95 96 97 98 99 100 101 102 104 105 106 108 109 110 111 120 126 127 131 132 134 137 138 139 146 157 158 159 160 162 171 173 176 179 181 182 183 184 185 186 188 189 190 193 195 196 197 200 201 228 237 238 240 245 262 274 278 287 291 292 293 295 306 312 314 317 318 323 331 344 350 351 352 353 354 356 366 368 377 379 381 382 383 390 395 401 404 420 421 429 438 442 476 479 489 509 518 520 523 525 535 539 547 554 577 579 589 592 593 598 599 606 608 611 614 620 621 627 638 644 645 670 671 679 686 692 693 694 699 708 760 762 772 798 802 805 806 807 819 827 843 845 850 856 859 867 878 881 882 883 930 936 938 953 954 970 971 979 989 990 996 1000 1005 1010 1016 1023",
		"filters": {
			"downloadable": true,
			"outdated": true,
			"updated": true
	
		"general": {
			"notifyNewEntries": false,
			"notifyOutdated": false,
			"startDownloaded": false,
			"startUpdated": false
		}
	}
}